%TF.GenerationSoftware,KiCad,Pcbnew,7.0.1-3b83917a11~172~ubuntu22.04.1*%
%TF.CreationDate,2023-04-11T23:48:48-04:00*%
%TF.ProjectId,kdlfo,6b646c66-6f2e-46b6-9963-61645f706362,rev?*%
%TF.SameCoordinates,Original*%
%TF.FileFunction,Drillmap*%
%TF.FilePolarity,Positive*%
%FSLAX45Y45*%
G04 Gerber Fmt 4.5, Leading zero omitted, Abs format (unit mm)*
G04 Created by KiCad (PCBNEW 7.0.1-3b83917a11~172~ubuntu22.04.1) date 2023-04-11 23:48:48*
%MOMM*%
%LPD*%
G01*
G04 APERTURE LIST*
%ADD10C,0.100000*%
%ADD11C,0.200000*%
G04 APERTURE END LIST*
D10*
X6450000Y-3300000D02*
X12000000Y-3300000D01*
X6450000Y-20100000D02*
X6450000Y-3300000D01*
X12000000Y-5300000D02*
X13550000Y-5300000D01*
X13550000Y-20100000D02*
X6450000Y-20100000D01*
X13550000Y-5300000D02*
X13550000Y-20100000D01*
X12000000Y-3300000D02*
X12000000Y-5300000D01*
D11*
X6692619Y-20417524D02*
X6692619Y-20217524D01*
X6692619Y-20217524D02*
X6740238Y-20217524D01*
X6740238Y-20217524D02*
X6768809Y-20227048D01*
X6768809Y-20227048D02*
X6787857Y-20246095D01*
X6787857Y-20246095D02*
X6797381Y-20265143D01*
X6797381Y-20265143D02*
X6806905Y-20303238D01*
X6806905Y-20303238D02*
X6806905Y-20331810D01*
X6806905Y-20331810D02*
X6797381Y-20369905D01*
X6797381Y-20369905D02*
X6787857Y-20388952D01*
X6787857Y-20388952D02*
X6768809Y-20408000D01*
X6768809Y-20408000D02*
X6740238Y-20417524D01*
X6740238Y-20417524D02*
X6692619Y-20417524D01*
X6892619Y-20417524D02*
X6892619Y-20284190D01*
X6892619Y-20322286D02*
X6902143Y-20303238D01*
X6902143Y-20303238D02*
X6911667Y-20293714D01*
X6911667Y-20293714D02*
X6930714Y-20284190D01*
X6930714Y-20284190D02*
X6949762Y-20284190D01*
X7016428Y-20417524D02*
X7016428Y-20284190D01*
X7016428Y-20217524D02*
X7006905Y-20227048D01*
X7006905Y-20227048D02*
X7016428Y-20236571D01*
X7016428Y-20236571D02*
X7025952Y-20227048D01*
X7025952Y-20227048D02*
X7016428Y-20217524D01*
X7016428Y-20217524D02*
X7016428Y-20236571D01*
X7140238Y-20417524D02*
X7121190Y-20408000D01*
X7121190Y-20408000D02*
X7111667Y-20388952D01*
X7111667Y-20388952D02*
X7111667Y-20217524D01*
X7245000Y-20417524D02*
X7225952Y-20408000D01*
X7225952Y-20408000D02*
X7216428Y-20388952D01*
X7216428Y-20388952D02*
X7216428Y-20217524D01*
X7473571Y-20417524D02*
X7473571Y-20217524D01*
X7473571Y-20217524D02*
X7540238Y-20360381D01*
X7540238Y-20360381D02*
X7606905Y-20217524D01*
X7606905Y-20217524D02*
X7606905Y-20417524D01*
X7787857Y-20417524D02*
X7787857Y-20312762D01*
X7787857Y-20312762D02*
X7778333Y-20293714D01*
X7778333Y-20293714D02*
X7759286Y-20284190D01*
X7759286Y-20284190D02*
X7721190Y-20284190D01*
X7721190Y-20284190D02*
X7702143Y-20293714D01*
X7787857Y-20408000D02*
X7768809Y-20417524D01*
X7768809Y-20417524D02*
X7721190Y-20417524D01*
X7721190Y-20417524D02*
X7702143Y-20408000D01*
X7702143Y-20408000D02*
X7692619Y-20388952D01*
X7692619Y-20388952D02*
X7692619Y-20369905D01*
X7692619Y-20369905D02*
X7702143Y-20350857D01*
X7702143Y-20350857D02*
X7721190Y-20341333D01*
X7721190Y-20341333D02*
X7768809Y-20341333D01*
X7768809Y-20341333D02*
X7787857Y-20331810D01*
X7883095Y-20284190D02*
X7883095Y-20484190D01*
X7883095Y-20293714D02*
X7902143Y-20284190D01*
X7902143Y-20284190D02*
X7940238Y-20284190D01*
X7940238Y-20284190D02*
X7959286Y-20293714D01*
X7959286Y-20293714D02*
X7968809Y-20303238D01*
X7968809Y-20303238D02*
X7978333Y-20322286D01*
X7978333Y-20322286D02*
X7978333Y-20379429D01*
X7978333Y-20379429D02*
X7968809Y-20398476D01*
X7968809Y-20398476D02*
X7959286Y-20408000D01*
X7959286Y-20408000D02*
X7940238Y-20417524D01*
X7940238Y-20417524D02*
X7902143Y-20417524D01*
X7902143Y-20417524D02*
X7883095Y-20408000D01*
X8064048Y-20398476D02*
X8073571Y-20408000D01*
X8073571Y-20408000D02*
X8064048Y-20417524D01*
X8064048Y-20417524D02*
X8054524Y-20408000D01*
X8054524Y-20408000D02*
X8064048Y-20398476D01*
X8064048Y-20398476D02*
X8064048Y-20417524D01*
X8064048Y-20293714D02*
X8073571Y-20303238D01*
X8073571Y-20303238D02*
X8064048Y-20312762D01*
X8064048Y-20312762D02*
X8054524Y-20303238D01*
X8054524Y-20303238D02*
X8064048Y-20293714D01*
X8064048Y-20293714D02*
X8064048Y-20312762D01*
M02*
